Name,Age,Company,Building_Code,Phone_Number,Address
Anusuya Pilla DDS,64,Gandhi Corp,0745,004-661-2312,"37962 Ananda Meadows, Hyderabad, JS 130445"
Charvi Varma V,80,Mahajan Ltd,39999,989.879.8412,"9589 Geeta Flats, Mumbai, AN 521149"
Abhisyanta Pilla III,95,"Pothuvaal, Desai and Mukhopadhyay",995,149-208-3256,"467 Pothuvaal Manor, Chennai, PB 504605"
Ms. Dhanapati Verma,54,"Embranthiri, Bhattacharya and Abbott",9162,(640) 631-7075,"Suite 612 7361 Gill Meadows, Visakhapatnam, UP 512907"
Shwet Dwivedi,72,"Varrier, Namboothiri and Bandopadhyay",2457,(528) 674-8865,"087 Asan Common, Bengaluru, SK 149731"
Chapal Kapoor,91,"Kaul, Sharma and Chopra",83715,679-333-0840,"Suite 577 56802 Asan Stream, Hyderabad, TN 373240"
Sitara Tagore,66,Kocchar Brothers,30155,608.757.0630,"Apt. 124 402 Desai Cape, Chennai, AN 288075"
Chanda Kakkar,72,Kaniyar-Tandon,821,(550) 879-6148,"Suite 846 434 Anuja Orchard, Thiruvananthapuram, JS 545227"
Mrs. Bahula Rana,39,Chopra and Sons,41516,(886) 190-3986,"0437 Bhattacharya Ports, Hyderabad, PY 701758"
Chandrakin Jain DDS,82,Ahuja-Ganaka,726,(753) 990-5865,"Apt. 591 839 Desai Skyway, Visakhapatnam, MN 500531"
Ekaaksh Mehrotra,38,Adiga Limited,60620,1-480-651-8800,"Suite 582 166 Bhooshan Shoal, New Delhi, KL 180046"
