Name,Age,Company,Building_Code,Phone_Number,Address
Tejas Dwivedi,38,"Khatri, Butt and Butt",19747,(596) 424-5892,"Apt. 610 623 Patil Dam, Bengaluru, RJ 341553"
Mr. Bhudev Achari,46,Bhat Group,883,1-710-457-5105,"6760 Bhattathiri Mills, New Delhi, CG 064366"
Tanushri Bhattathiri,97,Varman-Dubashi,2766,(709) 855-4904,"85795 Mehra Haven, Mumbai, AN 646307"
Kamalesh Dwivedi,61,Arora Group,11229,328-039-0554,"02088 Sethi Road, Visakhapatnam, GA 244028"
Bhushit Dwivedi DVM,54,Jha Group,0691,412-103-4945,"796 Gitanjali Estates, Hyderabad, HR 598962"
Mrs. Bhooshan Ahluwalia,57,Marar-Chaturvedi,00916,1-434-146-1375,"254 Chopra Parkways, Kolkata, AN 947623"
Achintya Talwar,24,Marar-Mahajan,93029,(796) 062-6708,"Apt. 134 00182 Gandhi Drives, Mumbai, SK 652619"
Rajiv Nayar II,65,Gupta Pvt Ltd,012,663-970-5945,"Suite 609 2200 Shah Skyway, Mumbai, HP 816710"
Kamalesh Kapoor,31,Asan Ltd,55663,652.104.5170,"7324 Verma Alley, Kolkata, UK 939481"
Mrs. Bhramar Gupta,69,Nair-Dwivedi,6565,(566) 246-3327,"Apt. 177 74851 Singh Plaza, Thiruvananthapuram, NL 610487"
Daksha Ganaka I,40,"Bhattacharya, Guneta and Dwivedi",392,997.252.8875,"Suite 544 405 Nayar Crossroad, Bengaluru, KA 332347"
