Name,Age,Company,Building_Code,Phone_Number,Address
Atreyi Gowda,47,"Somayaji, Shukla and Banerjee",640,397.299.5191,"7686 Chopra Ranch, Kolkata, PB 488544"
Anal Marar,18,"Dhawan, Kaul and Sethi",08810,390-215-5004,"Apt. 274 520 Pillai Rapid, Visakhapatnam, GA 883496"
Mrs. Jaya Kaul,50,Chopra and Sons,7503,1-457-417-1381,"30747 Deshpande Mills, Bengaluru, DD 589636"
Chinmayanand Jain,65,Somayaji-Kaur,8207,1-150-176-7401,"678 Brajesh Cove, Kolkata, DD 891866"
Vishnu Gupta,56,Bhattathiri-Patel,725,301.294.9395,"2336 Uma Key, Kolkata, KL 718660"
Shwet Bhattacharya,68,Tandon and Sons,70751,129.705.4637,"Suite 830 74964 Shukla Meadow, Mumbai, TN 963659"
Somnath Desai,19,Nehru Corp,7384,577.544.0287,"Suite 826 81604 Yoginder Spring, Kolkata, CH 135092"
Umang Asan,83,"Jha, Namboothiri and Pothuvaal",96210,182-918-1461,"3008 Naik Hills, Chennai, JK 683497"
Annapurna Iyer,45,Chopra Ltd,4402,124.296.4854,"8030 Rana Station, Hyderabad, JK 069726"
Mr. Prema Dubashi,41,Asan-Johar,9911,688-996-5789,"Suite 020 97020 Varma Mill, Visakhapatnam, OR 667259"
Gobinda Gill,56,Agarwal-Bandopadhyay,4729,356-684-3098,"Apt. 704 98917 Iyer Viaduct, Visakhapatnam, TN 761005"
