Name,Age,Company,Building_Code,Phone_Number,Address
Atmananda Nair,69,Dutta-Chaturvedi,73888,158.117.5559,"Suite 421 01551 Nair Rest, Kolkata, NL 852833"
Himadri Kapoor,73,Saini-Abbott,8041,1-456-595-2742,"263 Talwar Summit, New Delhi, WB 279379"
Mr. Birjesh Acharya,72,Khan Limited,619,(678) 855-6828,"Apt. 359 101 Dubashi Isle, Thiruvananthapuram, MZ 243930"
Chaanakya Deshpande,56,Chaturvedi-Saini,2604,1-965-266-8731,"24296 Khan Walk, New Delhi, KL 098712"
Naveen Bandopadhyay,57,Nambeesan and Sons,5904,524.887.1247,"4868 Balagovind Green, New Delhi, GA 452686"
Akshaj Somayaji,59,Acharya-Pilla,07758,1-375-936-6601,"Suite 657 5078 Devasree Estates, Thiruvananthapuram, PB 059099"
Chandani Verma,43,Khan-Kakkar,54690,929.530.5795,"Apt. 617 8734 Dubashi Summit, Mumbai, UP 847515"
Balgopal Gowda DVM,56,Talwar-Kocchar,5487,(718) 356-4895,"05730 Kashyapi Forges, New Delhi, GA 453158"
Dr. Shashi Nehru,39,"Tandon, Tandon and Arora",139,872-298-1477,"1760 Gandhi Loaf, Hyderabad, OR 544946"
Baladitya Menon Jr.,91,"Arora, Bhattacharya and Arora",582,764.714.1197,"0973 Arora Lane, Kolkata, MN 311536"
Jay Kocchar,99,"Sethi, Varma and Achari",065,305.852.0394,"Apt. 821 01351 Aditya Lodge, Hyderabad, TN 221827"
