Name,Age,Company,Building_Code,Phone_Number,Address
Triloki Nath Khanna,43,Mehrotra-Varrier,28020,887.585.0316,"Apt. 976 376 Gautam Neck, Thiruvananthapuram, RJ 993366"
Bhramar Pandey,69,"Tagore, Gowda and Varman",2582,567.541.8880,"3764 Gautam Roads, Kolkata, DD 929896"
Heema Adiga,73,Bhattacharya-Dubashi,0059,(998) 497-7261,"Apt. 410 907 Tapan Cliff, New Delhi, CG 995958"
Abhaya Gill,78,Pandey-Patel,8243,381-193-4415,"Suite 191 9351 Devi Mills, New Delhi, MP 872343"
Dipesh Somayaji II,58,Khanna-Pillai,66975,(727) 484-6225,"53377 Ambar Coves, Hyderabad, UK 994401"
Aagneya Sethi,92,Nair Ltd,278,1-085-680-9508,"Apt. 420 84714 Abbott Lake, Visakhapatnam, KA 573313"
Aadi Nayar,58,Dhawan-Sharma,649,1-461-790-8259,"470 Minakshi Tunnel, Mumbai, AR 169544"
Mandaakin Chaturvedi,42,Shah Brothers,5242,681.164.7091,"21336 Dhanesh Station, Visakhapatnam, DD 368698"
Ms. Deeptendu Tandon,33,Bharadwaj Group,5742,284-921-5946,"Suite 993 1622 Pillai Roads, Bengaluru, OR 092265"
Achyut Deshpande,27,"Prajapat, Asan and Banerjee",121,1-768-290-6079,"Suite 948 84889 Adheesh Corner, Visakhapatnam, AR 513628"
Charuvrat Shukla,19,"Jha, Talwar and Gandhi",18639,574.700.6477,"Apt. 215 9116 Nambeesan Pass, Hyderabad, JK 898948"
