Name,Age,Company,Building_Code,Phone_Number,Address
Aagam Naik DDS,27,"Pillai, Singh and Malik",73426,040-437-0145,"4324 Sharma Spring, Thiruvananthapuram, KA 736355"
Manik Khanna MD,32,Pandey-Shah,4779,1-176-986-2113,"Suite 371 679 Dev Walks, Kolkata, BR 120350"
Basanti Sharma,92,Dubashi-Sharma,719,098-009-9368,"Apt. 908 02037 Bhaanumati Junctions, Thiruvananthapuram, JK 832579"
Jay Bhattathiri,22,"Reddy, Khanna and Abbott",7176,1-230-246-1827,"Apt. 821 104 Kanaka Crossing, Thiruvananthapuram, UP 232781"
Mohini Kakkar,56,Nambeesan-Mukhopadhyay,8449,1-658-863-0689,"Apt. 791 17381 Jha Divide, New Delhi, PY 251432"
Shreyashi Verma,33,Arora Corp,5719,1-915-785-4487,"800 Dakshayani Lodge, Thiruvananthapuram, DL 701301"
Mrs. Trisha Kaniyar,98,Shukla Group,51335,1-840-315-0214,"67198 Anjushri Station, Bengaluru, AR 790245"
Chandak Malik,71,"Guha, Achari and Devar",3849,603.708.1243,"Apt. 704 922 Dulari Camp, Visakhapatnam, GA 634582"
Ms. Gita Varrier,26,Iyengar Brothers,37614,497-136-3078,"Suite 934 25789 Johar Springs, New Delhi, DN 881291"
Mani Sharma,70,Varman Ltd,608,1-966-066-3303,"Apt. 199 112 Butt Row, Thiruvananthapuram, DD 824918"
Trilok Menon Jr.,60,Johar-Naik,08310,491-653-8241,"Suite 136 59541 Meghnad Creek, Mumbai, KA 744228"
