Name,Age,Company,Building_Code,Phone_Number,Address
Mr. Chidaatma Verma,20,Banerjee-Naik,6519,(943) 229-5105,"41635 Khatri Isle, Bengaluru, MZ 971754"
Brajesh Patil,46,Dutta Group,72258,(735) 847-5981,"23096 Mishra Ramp, New Delhi, KA 558585"
Chandira Naik,93,Desai Group,92525,182-212-7878,"Suite 833 08426 Gemini Cliff, New Delhi, HR 944391"
Bala Marar Sr.,90,Shukla Pvt Ltd,133,929.948.9957,"Apt. 342 6871 Agarwal Trail, Mumbai, BR 526316"
Chaanakya Nayar PhD,23,Rana-Guha,9947,(938) 489-0463,"Apt. 327 35870 Gill Fall, Thiruvananthapuram, TR 400287"
Akshayakeerti Abbott II,23,"Abbott, Dubashi and Kapoor",2287,1-097-876-4179,"Apt. 139 845 Shukla Street, Bengaluru, AP 004453"
Gaurang Mukhopadhyay III,54,Kaniyar and Sons,58902,942.088.9973,"132 Mangala Mills, Thiruvananthapuram, MZ 921819"
Gopi Desai,95,"Sethi, Verma and Varman",0960,1-468-492-9931,"15984 Bhattathiri Islands, Chennai, AN 340942"
Radha Tagore,39,Panicker-Kapoor,427,082.733.1451,"Suite 098 5347 Jitender Ford, Thiruvananthapuram, HP 789227"
Esha Trivedi,71,"Sethi, Mishra and Mishra",87559,150.108.9047,"Suite 993 3958 Anuraag Lodge, Mumbai, PB 401785"
Bilva Bharadwaj DDS,85,"Abbott, Patel and Reddy",01314,088-330-1297,"5968 Mehrotra Way, Kolkata, UK 250122"
