Name,Age,Company,Building_Code,Phone_Number,Address
Dinesh Gupta,51,"Mukhopadhyay, Dubashi and Butt",54430,233-922-1052,"483 Banerjee Unions, Bengaluru, PB 522478"
Kama Mehrotra,85,Nair-Panicker,0452,1-993-943-8855,"491 Anjushree Mountain, Thiruvananthapuram, DD 138098"
Charuchandra Agarwal,50,Adiga-Asan,68099,1-606-716-9435,"798 Anang River, Chennai, KA 146569"
Bhagvan Saini V,48,Jain Pvt Ltd,1783,279.150.6465,"Apt. 360 6720 Mandakini Trace, Bengaluru, OR 415614"
Chapal Sethi,94,Pilla-Namboothiri,059,(543) 025-7405,"43656 Nair Canyon, Hyderabad, MN 793279"
Vrund Desai V,34,"Somayaji, Asan and Rana",3708,758-907-7156,"Suite 206 051 Kocchar Road, Mumbai, UK 214939"
Kalyani Asan,47,Somayaji-Agarwal,81465,(004) 995-6343,"8675 Aditya Port, Chennai, AN 109289"
Anish Kocchar,31,Talwar Brothers,759,135.243.0317,"443 Reddy Roads, Hyderabad, HR 758011"
Mr. Dandak Pothuvaal,82,"Nambeesan, Gandhi and Guha",14278,482.588.3421,"200 Jagathi Glens, Thiruvananthapuram, UK 068511"
Kalyani Kaul,31,"Mishra, Somayaji and Ganaka",766,596-172-7733,"856 Keerti Causeway, Hyderabad, AR 360186"
Bankimchandra Kaul,88,Mehrotra and Sons,56552,775-517-0233,"7425 Bhisham Overpass, Kolkata, MH 583071"
